sequences/11_firstmatch_operator/transcript
# //  Questa Sim
# //  Version 10.6c linux Jul 25 2017
# //
# //  Copyright 1991-2017 Mentor Graphics Corporation
# //  All Rights Reserved.
# //
# //  QuestaSim and its associated documentation contain trade
# //  secrets and commercial or financial information that are the property of
# //  Mentor Graphics Corporation and are privileged, confidential,
# //  and exempt from disclosure under the Freedom of Information Act,
# //  5 U.S.C. Section 552. Furthermore, this information
# //  is prohibited from disclosure under the Trade Secrets Act,
# //  18 U.S.C. Section 1905.
# //
# waveform.wlf opened as dataset "waveform"
vsim -voptargs=+acc work.top
# vsim -voptargs="+acc" work.top 
# Start time: 17:41:22 on Oct 27,2021
# ** Note: (vsim-3812) Design is being optimized...
# Loading sv_std.std
# Loading work.top(fast)
add wave -position insertpoint sim:/top/*
run -all
# ** Error: Assertion failed
#    Time: 0 ns Started: 0 ns  Scope: top.S1 File: file.sv Line: 32
#                    0clk = 0, a = x, b = x, c = x, d = x, e = x
# ** Error: Assertion failed
#    Time: 1 ns Started: 1 ns  Scope: top.S1 File: file.sv Line: 32
#                    1clk = 1, a = 0, b = 0, c = 1, d = 1, e = 1
# ** Error: Assertion failed
#    Time: 2 ns Started: 2 ns  Scope: top.S1 File: file.sv Line: 32
#                    2clk = 0, a = 1, b = 1, c = 1, d = 0, e = 0
#                    3clk = 1, a = 1, b = 1, c = 1, d = 0, e = 0
# ** Error: Assertion failed
#    Time: 4 ns Started: 3 ns  Scope: top.S1 File: file.sv Line: 32
#                    4clk = 0, a = 1, b = 1, c = 1, d = 0, e = 0
# ** Error: Assertion failed
#    Time: 5 ns Started: 4 ns  Scope: top.S1 File: file.sv Line: 32
#                    5clk = 1, a = 0, b = 1, c = 0, d = 0, e = 0
# ** Error: Assertion failed
#    Time: 6 ns Started: 6 ns  Scope: top.S1 File: file.sv Line: 32
# ** Error: Assertion failed
#    Time: 6 ns Started: 5 ns  Scope: top.S1 File: file.sv Line: 32
#                    6clk = 0, a = 0, b = 0, c = 1, d = 1, e = 1
# ** Error: Assertion failed
#    Time: 7 ns Started: 7 ns  Scope: top.S1 File: file.sv Line: 32
#                    7clk = 1, a = 1, b = 0, c = 1, d = 1, e = 0
#                    8clk = 0, a = 0, b = 0, c = 1, d = 0, e = 0
# ** Error: Assertion failed
#    Time: 9 ns Started: 9 ns  Scope: top.S1 File: file.sv Line: 32
# ** Error: Assertion failed
#    Time: 9 ns Started: 8 ns  Scope: top.S1 File: file.sv Line: 32
#                    9clk = 1, a = 0, b = 0, c = 0, d = 0, e = 0
# ** Error: Assertion failed
#    Time: 10 ns Started: 10 ns  Scope: top.S1 File: file.sv Line: 32
#                   10clk = 0, a = 1, b = 1, c = 0, d = 0, e = 1
# ** Error: Assertion failed
#    Time: 11 ns Started: 11 ns  Scope: top.S1 File: file.sv Line: 32
#                   11clk = 1, a = 1, b = 1, c = 0, d = 0, e = 0
# ** Error: Assertion failed
#    Time: 12 ns Started: 12 ns  Scope: top.S1 File: file.sv Line: 32
#                   12clk = 0, a = 1, b = 1, c = 0, d = 1, e = 1
# ** Error: Assertion failed
#    Time: 13 ns Started: 13 ns  Scope: top.S1 File: file.sv Line: 32
#                   13clk = 1, a = 1, b = 0, c = 0, d = 0, e = 1
# ** Error: Assertion failed
#    Time: 14 ns Started: 14 ns  Scope: top.S1 File: file.sv Line: 32
#                   14clk = 0, a = 0, b = 0, c = 0, d = 1, e = 0
# ** Error: Assertion failed
#    Time: 15 ns Started: 15 ns  Scope: top.S1 File: file.sv Line: 32
#                   15clk = 1, a = 1, b = 1, c = 1, d = 0, e = 0
#                   16clk = 0, a = 0, b = 0, c = 1, d = 0, e = 1
# ** Error: Assertion failed
#    Time: 17 ns Started: 17 ns  Scope: top.S1 File: file.sv Line: 32
# ** Error: Assertion failed
#    Time: 17 ns Started: 16 ns  Scope: top.S1 File: file.sv Line: 32
#                   17clk = 1, a = 1, b = 1, c = 1, d = 1, e = 0
#                   18clk = 0, a = 1, b = 0, c = 1, d = 1, e = 0
#                   19clk = 1, a = 1, b = 0, c = 0, d = 0, e = 0
# ** Error: Assertion failed
#    Time: 20 ns Started: 20 ns  Scope: top.S1 File: file.sv Line: 32
# ** Error: Assertion failed
#    Time: 20 ns Started: 19 ns  Scope: top.S1 File: file.sv Line: 32
# ** Error: Assertion failed
#    Time: 20 ns Started: 18 ns  Scope: top.S1 File: file.sv Line: 32
#                   20clk = 0, a = 1, b = 0, c = 1, d = 1, e = 1
#                   21clk = 1, a = 1, b = 1, c = 1, d = 1, e = 0
#                   22clk = 0, a = 0, b = 0, c = 0, d = 1, e = 1
# ** Error: Assertion failed
#    Time: 23 ns Started: 23 ns  Scope: top.S1 File: file.sv Line: 32
# ** Error: Assertion failed
#    Time: 23 ns Started: 21 ns  Scope: top.S1 File: file.sv Line: 32
#                   23clk = 1, a = 0, b = 0, c = 1, d = 1, e = 0
# ** Error: Assertion failed
#    Time: 24 ns Started: 24 ns  Scope: top.S1 File: file.sv Line: 32
# ** Error: Assertion failed
#    Time: 24 ns Started: 22 ns  Scope: top.S1 File: file.sv Line: 32
#                   24clk = 0, a = 1, b = 0, c = 1, d = 0, e = 0
#                   25clk = 1, a = 0, b = 1, c = 1, d = 0, e = 1
# ** Error: Assertion failed
#    Time: 26 ns Started: 26 ns  Scope: top.S1 File: file.sv Line: 32
# ** Error: Assertion failed
#    Time: 26 ns Started: 25 ns  Scope: top.S1 File: file.sv Line: 32
#                   26clk = 0, a = 1, b = 1, c = 1, d = 0, e = 0
#                   27clk = 1, a = 0, b = 1, c = 1, d = 1, e = 1
# ** Error: Assertion failed
#    Time: 28 ns Started: 28 ns  Scope: top.S1 File: file.sv Line: 32
#                   28clk = 0, a = 1, b = 0, c = 0, d = 1, e = 0
# ** Error: Assertion failed
#    Time: 29 ns Started: 29 ns  Scope: top.S1 File: file.sv Line: 32
# ** Error: Assertion failed
#    Time: 29 ns Started: 27 ns  Scope: top.S1 File: file.sv Line: 32
#                   29clk = 1, a = 1, b = 0, c = 1, d = 1, e = 1
#                   30clk = 0, a = 1, b = 1, c = 1, d = 1, e = 1
#                   31clk = 1, a = 1, b = 1, c = 1, d = 1, e = 0
# ** Error: Assertion failed
#    Time: 32 ns Started: 30 ns  Scope: top.S1 File: file.sv Line: 32
#                   32clk = 0, a = 0, b = 1, c = 1, d = 0, e = 0
# ** Error: Assertion failed
#    Time: 33 ns Started: 33 ns  Scope: top.S1 File: file.sv Line: 32
# ** Error: Assertion failed
#    Time: 33 ns Started: 32 ns  Scope: top.S1 File: file.sv Line: 32
# ** Error: Assertion failed
#    Time: 33 ns Started: 31 ns  Scope: top.S1 File: file.sv Line: 32
#                   33clk = 1, a = 0, b = 1, c = 1, d = 0, e = 0
# ** Error: Assertion failed
#    Time: 34 ns Started: 34 ns  Scope: top.S1 File: file.sv Line: 32
#                   34clk = 0, a = 0, b = 0, c = 1, d = 0, e = 0
# ** Error: Assertion failed
#    Time: 35 ns Started: 35 ns  Scope: top.S1 File: file.sv Line: 32
#                   35clk = 1, a = 1, b = 1, c = 1, d = 1, e = 0
#                   36clk = 0, a = 0, b = 0, c = 1, d = 0, e = 1
# ** Error: Assertion failed
#    Time: 37 ns Started: 37 ns  Scope: top.S1 File: file.sv Line: 32
# ** Error: Assertion failed
#    Time: 37 ns Started: 36 ns  Scope: top.S1 File: file.sv Line: 32
#                   37clk = 1, a = 1, b = 0, c = 0, d = 1, e = 0
# ** Error: Assertion failed
#    Time: 38 ns Started: 38 ns  Scope: top.S1 File: file.sv Line: 32
#                   38clk = 0, a = 1, b = 1, c = 0, d = 1, e = 1
# ** Error: Assertion failed
#    Time: 39 ns Started: 39 ns  Scope: top.S1 File: file.sv Line: 32
#                   39clk = 1, a = 1, b = 0, c = 0, d = 1, e = 0
# ** Note: $finish    : file.sv(36)
#    Time: 40 ns  Iteration: 0  Instance: /top
# 1
# Break in Module top at file.sv line 36
# End time: 17:43:15 on Oct 27,2021, Elapsed time: 0:01:53
# Errors: 40, Warnings: 0
